verify/MS_CLK_RST_tb.vcd
$date
	Sun Aug 27 21:53:56 2023
$end
$version
	Icarus Verilog
$end
$timescale
	1ps
$end
$scope module MS_CLK_RST_tb $end
$var event 1 ! ext_rst $end
$var wire 1 " rst_n $end
$var wire 1 # por_n $end
$var wire 1 $ clk $end
$var reg 2 % clk_div [1:0] $end
$var reg 1 & sel_n_8mhz $end
$var reg 2 ' sel_rosc [1:0] $end
$var reg 1 ( sel_xclk $end
$var reg 1 ) xclk $end
$var reg 1 * xclk_stop $end
$var reg 1 + xrst_n $end
$scope module MUV $end
$var wire 2 , clk_div [1:0] $end
$var wire 1 - enable_xclk_mon $end
$var wire 1 . por_fb_in $end
$var wire 1 / por_fb_out $end
$var wire 1 " rst_n $end
$var wire 1 & sel_n_8mhz $end
$var wire 2 0 sel_rosc [1:0] $end
$var wire 1 ( sel_xclk $end
$var wire 1 1 tiehi $end
$var wire 1 2 tielo $end
$var wire 1 ) xclk $end
$var wire 1 3 xclk_edge $end
$var wire 1 + xrst_n $end
$var wire 1 4 xclk_cntr_z $end
$var wire 1 5 sxrst_n $end
$var wire 1 # por_n $end
$var wire 1 6 en_xclk_cntr $end
$var wire 1 7 clk_rosc $end
$var wire 1 8 clk_mux1_div $end
$var wire 1 9 clk_mux1 $end
$var wire 1 : clk_8mhz $end
$var wire 1 ; clk_8 $end
$var wire 1 < clk_4 $end
$var wire 1 = clk_2 $end
$var wire 1 > clk_128mhz $end
$var wire 1 $ clk $end
$var reg 3 ? clkdiv [2:0] $end
$var reg 9 @ mon_cntr [8:0] $end
$var reg 9 A xclk_cntr [8:0] $end
$var reg 1 B xclk_mon_rst_n $end
$var reg 3 C xclk_sync [2:0] $end
$scope module CLKMUX $end
$var wire 1 = clk2 $end
$var wire 1 < clk3 $end
$var wire 1 ; clk4 $end
$var wire 1 " rst_n $end
$var wire 2 D sel [1:0] $end
$var wire 1 E clko2 $end
$var wire 1 F clko1 $end
$var wire 1 8 clko $end
$var wire 1 9 clk1 $end
$scope module m1 $end
$var wire 1 G Q1b_bar $end
$var wire 1 H Q2b_bar $end
$var wire 1 = clk2 $end
$var wire 1 F clko $end
$var wire 1 I q1a_in $end
$var wire 1 J q2a_in $end
$var wire 1 " rst_n $end
$var wire 1 K sel $end
$var wire 1 L sel_bar $end
$var wire 1 9 clk1 $end
$var reg 1 M Q1a $end
$var reg 1 N Q1b $end
$var reg 1 O Q2a $end
$var reg 1 P Q2b $end
$upscope $end
$scope module m2 $end
$var wire 1 Q Q1b_bar $end
$var wire 1 R Q2b_bar $end
$var wire 1 < clk1 $end
$var wire 1 ; clk2 $end
$var wire 1 E clko $end
$var wire 1 S q1a_in $end
$var wire 1 T q2a_in $end
$var wire 1 " rst_n $end
$var wire 1 U sel $end
$var wire 1 V sel_bar $end
$var reg 1 W Q1a $end
$var reg 1 X Q1b $end
$var reg 1 Y Q2a $end
$var reg 1 Z Q2b $end
$upscope $end
$scope module m3 $end
$var wire 1 [ Q1b_bar $end
$var wire 1 \ Q2b_bar $end
$var wire 1 F clk1 $end
$var wire 1 E clk2 $end
$var wire 1 8 clko $end
$var wire 1 ] q1a_in $end
$var wire 1 ^ q2a_in $end
$var wire 1 " rst_n $end
$var wire 1 _ sel $end
$var wire 1 ` sel_bar $end
$var reg 1 a Q1a $end
$var reg 1 b Q1b $end
$var reg 1 c Q2a $end
$var reg 1 d Q2b $end
$upscope $end
$upscope $end
$scope module CLKMUX0 $end
$var wire 1 e Q1b_bar $end
$var wire 1 f Q2b_bar $end
$var wire 1 8 clk2 $end
$var wire 1 $ clko $end
$var wire 1 g q1a_in $end
$var wire 1 h q2a_in $end
$var wire 1 " rst_n $end
$var wire 1 & sel $end
$var wire 1 i sel_bar $end
$var wire 1 : clk1 $end
$var reg 1 j Q1a $end
$var reg 1 k Q1b $end
$var reg 1 l Q2a $end
$var reg 1 m Q2b $end
$upscope $end
$scope module CLKMUX1 $end
$var wire 1 n Q1b_bar $end
$var wire 1 o Q2b_bar $end
$var wire 1 ) clk2 $end
$var wire 1 9 clko $end
$var wire 1 p q1a_in $end
$var wire 1 q q2a_in $end
$var wire 1 " rst_n $end
$var wire 1 ( sel $end
$var wire 1 r sel_bar $end
$var wire 1 7 clk1 $end
$var reg 1 s Q1a $end
$var reg 1 t Q1b $end
$var reg 1 u Q2a $end
$var reg 1 v Q2b $end
$upscope $end
$scope module PoR $end
$var wire 1 . fb_in $end
$var wire 1 / fb_out $end
$var wire 2 w freq_sel [1:0] $end
$var wire 1 1 one $end
$var wire 1 # por_n $end
$var wire 1 " rst_n $end
$var wire 1 2 zero $end
$var wire 1 x cmp3 $end
$var wire 1 y cmp2 $end
$var wire 1 z cmp1 $end
$var wire 1 { cmp0 $end
$var wire 1 7 clk_out $end
$var wire 1 : clk_8mhz $end
$var wire 1 | clk_64mhz $end
$var wire 1 } clk_500khz $end
$var wire 1 ~ clk_32mhz $end
$var wire 1 !" clk_16mhz $end
$var wire 1 > clk_128mhz $end
$var reg 8 "" clk_div [8:1] $end
$var reg 1 > fake_clk $end
$var reg 16 #" shift_reg0 [15:0] $end
$var reg 16 $" shift_reg1 [15:0] $end
$var reg 16 %" shift_reg2 [15:0] $end
$var reg 16 &" shift_reg3 [15:0] $end
$scope module CLKMUX $end
$var wire 1 > clk1 $end
$var wire 1 | clk2 $end
$var wire 1 ~ clk3 $end
$var wire 1 !" clk4 $end
$var wire 1 " rst_n $end
$var wire 2 '" sel [1:0] $end
$var wire 1 (" clko2 $end
$var wire 1 )" clko1 $end
$var wire 1 7 clko $end
$scope module m1 $end
$var wire 1 *" Q1b_bar $end
$var wire 1 +" Q2b_bar $end
$var wire 1 > clk1 $end
$var wire 1 | clk2 $end
$var wire 1 )" clko $end
$var wire 1 ," q1a_in $end
$var wire 1 -" q2a_in $end
$var wire 1 " rst_n $end
$var wire 1 ." sel $end
$var wire 1 /" sel_bar $end
$var reg 1 0" Q1a $end
$var reg 1 1" Q1b $end
$var reg 1 2" Q2a $end
$var reg 1 3" Q2b $end
$upscope $end
$scope module m2 $end
$var wire 1 4" Q1b_bar $end
$var wire 1 5" Q2b_bar $end
$var wire 1 ~ clk1 $end
$var wire 1 !" clk2 $end
$var wire 1 (" clko $end
$var wire 1 6" q1a_in $end
$var wire 1 7" q2a_in $end
$var wire 1 " rst_n $end
$var wire 1 8" sel $end
$var wire 1 9" sel_bar $end
$var reg 1 :" Q1a $end
$var reg 1 ;" Q1b $end
$var reg 1 <" Q2a $end
$var reg 1 =" Q2b $end
$upscope $end
$scope module m3 $end
$var wire 1 >" Q1b_bar $end
$var wire 1 ?" Q2b_bar $end
$var wire 1 )" clk1 $end
$var wire 1 (" clk2 $end
$var wire 1 7 clko $end
$var wire 1 @" q1a_in $end
$var wire 1 A" q2a_in $end
$var wire 1 " rst_n $end
$var wire 1 B" sel $end
$var wire 1 C" sel_bar $end
$var reg 1 D" Q1a $end
$var reg 1 E" Q1b $end
$var reg 1 F" Q2a $end
$var reg 1 G" Q2b $end
$upscope $end
$upscope $end
$upscope $end
$scope module RST_SYNC $end
$var wire 1 : clk $end
$var wire 1 + rst_n $end
$var wire 1 5 srst_n $end
$var reg 3 H" rst_sync [2:0] $end
$upscope $end
$upscope $end
$upscope $end
$enddefinitions $end
#0
$dumpvars
bx H"
0G"
0F"
0E"
0D"
1C"
0B"
0A"
1@"
1?"
1>"
0="
0<"
0;"
0:"
19"
08"
07"
16"
15"
14"
03"
02"
01"
00"
1/"
0."
0-"
1,"
1+"
1*"
0)"
0("
b0 '"
b1011111010101101 &"
b1101111010101111 %"
b1011111011101111 $"
b1101111010101101 #"
b0 ""
0!"
0~
0}
0|
0{
0z
0y
0x
b0 w
0v
0u
0t
0s
1r
0q
1p
1o
1n
0m
0l
0k
0j
1i
0h
1g
1f
1e
0d
0c
0b
0a
1`
0_
0^
1]
1\
1[
0Z
0Y
0X
0W
1V
0U
0T
1S
1R
1Q
0P
0O
0N
0M
1L
0K
0J
1I
1H
1G
0F
0E
b0 D
bx0 C
1B
b0 A
b0 @
b0 ?
0>
0=
0<
0;
0:
09
08
07
06
x5
14
x3
02
11
b0 0
z/
z.
0-
b0 ,
1+
0*
0)
0(
b0 '
0&
b0 %
0$
0#
0"
1!
$end
#3900
03
1|
bx00 C
b1 ""
1>
#7800
0>
#11700
0|
1~
b0 C
b10 ""
1>
#15600
0>
#19500
1|
b11 ""
1>
#20000
1)
#23400
0>
#27300
0|
0~
1!"
b1 C
b100 ""
1>
#31200
0>
#35100
13
1|
b11 C
b101 ""
1>
#39000
0>
#40000
0)
#42900
03
0|
1~
b110 C
b110 ""
1>
#46800
0>
#50700
1|
b100 C
b111 ""
1>
#54600
0>
#58500
bx1 H"
0|
0~
0!"
1:
b0 C
b1000 ""
1>
#60000
1)
#62400
0>
#66300
1|
b1 C
b1001 ""
1>
#70200
0>
#74100
13
0|
1~
b11 C
b1010 ""
1>
#78000
0>
#80000
0)
#81900
03
1|
b110 C
b1011 ""
1>
#85800
0>
#89700
0|
0~
1!"
b100 C
b1100 ""
1>
#93600
0>
#97500
1|
b0 C
b1101 ""
1>
#100000
1)
#101400
0>
#105300
0|
1~
b1 C
b1110 ""
1>
#109200
0>
#113100
13
1|
b11 C
b1111 ""
1>
#117000
0>
#120000
0)
#120900
03
0|
0~
0!"
0:
b110 C
b10000 ""
1>
#124800
0>
#128700
1|
b100 C
b10001 ""
1>
#132600
0>
#136500
0|
1~
b0 C
b10010 ""
1>
#140000
1)
#140400
0>
#144300
1|
b1 C
b10011 ""
1>
#148200
0>
#152100
13
0|
0~
1!"
b11 C
b10100 ""
1>
#156000
0>
#159900
03
1|
b111 C
b10101 ""
1>
#160000
0)
#163800
0>
#167700
0|
1~
b110 C
b10110 ""
1>
#171600
0>
#175500
1|
b100 C
b10111 ""
1>
#179400
0>
#180000
1)
#183300
bx11 H"
0|
0~
0!"
1:
b1 C
b11000 ""
1>
#187200
0>
#191100
13
1|
b11 C
b11001 ""
1>
#195000
0>
#198900
03
0|
1~
b111 C
b11010 ""
1>
#200000
0)
#202800
0>
#206700
1|
b110 C
b11011 ""
1>
#210600
0>
#214500
0|
0~
1!"
b100 C
b11100 ""
1>
#218400
0>
#220000
1)
#222300
1|
b1 C
b11101 ""
1>
#226200
0>
#230100
13
0|
1~
b11 C
b11110 ""
1>
#234000
0>
#237900
03
1|
b111 C
b11111 ""
1>
#240000
0)
#241800
0>
#245700
0|
0~
0!"
0:
b110 C
b100000 ""
1>
#249600
0>
#253500
1|
b100 C
b100001 ""
1>
#257400
0>
#260000
1)
#261300
0|
1~
b1 C
b100010 ""
1>
#265200
0>
#269100
13
1|
b11 C
b100011 ""
1>
#273000
0>
#276900
03
0|
0~
1!"
b111 C
b100100 ""
1>
#280000
0)
#280800
0>
#284700
1|
b110 C
b100101 ""
1>
#288600
0>
#292500
0|
1~
b100 C
b100110 ""
1>
#296400
0>
#300000
1)
#300300
1|
b1 C
b100111 ""
1>
#304200
0>
#308100
15
b111 H"
13
0|
0~
0!"
1:
b11 C
b101000 ""
1>
#312000
0>
#315900
03
1|
b111 C
b101001 ""
1>
#319800
0>
#320000
0)
#323700
0|
1~
b110 C
b101010 ""
1>
#327600
0>
#331500
1|
b100 C
b101011 ""
1>
#335400
0>
#339300
0|
0~
1!"
b0 C
b101100 ""
1>
#340000
1)
#343200
0>
#347100
1|
b1 C
b101101 ""
1>
#351000
0>
#354900
13
0|
1~
b11 C
b101110 ""
1>
#358800
0>
#360000
0)
#362700
03
1|
b110 C
b101111 ""
1>
#366600
0>
#370500
0|
0~
0!"
0:
b100 C
b110000 ""
1>
#374400
0>
#378300
1|
b0 C
b110001 ""
1>
#380000
1)
#382200
0>
#386100
0|
1~
b1 C
b110010 ""
1>
#390000
0>
#393900
13
1|
b11 C
b110011 ""
1>
#397800
0>
#400000
0)
#401700
03
0|
0~
1!"
b110 C
b110100 ""
1>
#405600
0>
#409500
1|
b100 C
b110101 ""
1>
#413400
0>
#417300
0|
1~
b0 C
b110110 ""
1>
#420000
1)
#421200
0>
#425100
1|
b1 C
b110111 ""
1>
#429000
0>
#432900
13
0|
0~
0!"
1:
b11 C
b111000 ""
1>
#436800
0>
#440000
0)
#440700
03
1|
b110 C
b111001 ""
1>
#444600
0>
#448500
0|
1~
b100 C
b111010 ""
1>
#452400
0>
#456300
1|
b0 C
b111011 ""
1>
#460000
1)
#460200
0>
#464100
0|
0~
1!"
b1 C
b111100 ""
1>
#468000
0>
#471900
13
1|
b11 C
b111101 ""
1>
#475800
0>
#479700
03
0|
1~
b111 C
b111110 ""
1>
#480000
0)
#483600
0>
#487500
1|
b110 C
b111111 ""
1>
#491400
0>
#495300
0|
0~
0!"
0:
b100 C
b1000000 ""
1>
#499200
0>
#500000
1)
#503100
1|
b1 C
b1000001 ""
1>
#507000
0>
#510900
13
0|
1~
b11 C
b1000010 ""
1>
#514800
0>
#518700
03
1|
b111 C
b1000011 ""
1>
#520000
0)
#522600
0>
#526500
0|
0~
1!"
b110 C
b1000100 ""
1>
#530400
0>
#534300
1|
b100 C
b1000101 ""
1>
#538200
0>
#540000
1)
#542100
0|
1~
b1 C
b1000110 ""
1>
#546000
0>
#549900
13
1|
b11 C
b1000111 ""
1>
#553800
0>
#557700
03
0|
0~
0!"
1:
b111 C
b1001000 ""
1>
#560000
0)
#561600
0>
#565500
1|
b110 C
b1001001 ""
1>
#569400
0>
#573300
0|
1~
b100 C
b1001010 ""
1>
#577200
0>
#580000
1)
#581100
1|
b1 C
b1001011 ""
1>
#585000
0>
#588900
13
0|
0~
1!"
b11 C
b1001100 ""
1>
#592800
0>
#596700
03
1|
b111 C
b1001101 ""
1>
#600000
0)
#600600
0>
#604500
0|
1~
b110 C
b1001110 ""
1>
#608400
0>
#612300
1|
b100 C
b1001111 ""
1>
#616200
0>
#620000
1)
#620100
0|
0~
0!"
0:
b1 C
b1010000 ""
1>
#624000
0>
#627900
13
1|
b11 C
b1010001 ""
1>
#631800
0>
#635700
03
0|
1~
b111 C
b1010010 ""
1>
#639600
0>
#640000
0)
#643500
1|
b110 C
b1010011 ""
1>
#647400
0>
#651300
0|
0~
1!"
b100 C
b1010100 ""
1>
#655200
0>
#659100
1|
b0 C
b1010101 ""
1>
#660000
1)
#663000
0>
#666900
0|
1~
b1 C
b1010110 ""
1>
#670800
0>
#674700
13
1|
b11 C
b1010111 ""
1>
#678600
0>
#680000
0)
#682500
03
0|
0~
0!"
1:
b110 C
b1011000 ""
1>
#686400
0>
#690300
1|
b100 C
b1011001 ""
1>
#694200
0>
#698100
0|
1~
b0 C
b1011010 ""
1>
#700000
1)
#702000
0>
#705900
1|
b1 C
b1011011 ""
1>
#709800
0>
#713700
13
0|
0~
1!"
b11 C
b1011100 ""
1>
#717600
0>
#720000
0)
#721500
03
1|
b110 C
b1011101 ""
1>
#725400
0>
#729300
0|
1~
b100 C
b1011110 ""
1>
#733200
0>
#737100
1|
b0 C
b1011111 ""
1>
#740000
1)
#741000
0>
#744900
0|
0~
0!"
0:
b1 C
b1100000 ""
1>
#748800
0>
#752700
13
1|
b11 C
b1100001 ""
1>
#756600
0>
#760000
0)
#760500
03
0|
1~
b110 C
b1100010 ""
1>
#764400
0>
#768300
1|
b100 C
b1100011 ""
1>
#772200
0>
#776100
0|
0~
1!"
b0 C
b1100100 ""
1>
#780000
0>
1)
#783900
1|
b1 C
b1100101 ""
1>
#787800
0>
#791700
13
0|
1~
b11 C
b1100110 ""
1>
#795600
0>
#799500
03
1|
b111 C
b1100111 ""
1>
#800000
0)
#803400
0>
#807300
0|
0~
0!"
1:
b110 C
b1101000 ""
1>
#811200
0>
#815100
1|
b100 C
b1101001 ""
1>
#819000
0>
#820000
1)
#822900
0|
1~
b1 C
b1101010 ""
1>
#826800
0>
#830700
13
1|
b11 C
b1101011 ""
1>
#834600
0>
#838500
03
0|
0~
1!"
b111 C
b1101100 ""
1>
#840000
0)
#842400
0>
#846300
1|
b110 C
b1101101 ""
1>
#850200
0>
#854100
0|
1~
b100 C
b1101110 ""
1>
#858000
0>
#860000
1)
#861900
1|
b1 C
b1101111 ""
1>
#865800
0>
#869700
13
0|
0~
0!"
0:
b11 C
b1110000 ""
1>
#873600
0>
#877500
03
1|
b111 C
b1110001 ""
1>
#880000
0)
#881400
0>
#885300
0|
1~
b110 C
b1110010 ""
1>
#889200
0>
#893100
1|
b100 C
b1110011 ""
1>
#897000
0>
#900000
1)
#900900
0|
0~
1!"
b1 C
b1110100 ""
1>
#904800
0>
#908700
13
1|
b11 C
b1110101 ""
1>
#912600
0>
#916500
03
0|
1~
b111 C
b1110110 ""
1>
#920000
0)
#920400
0>
#924300
1|
b110 C
b1110111 ""
1>
#928200
0>
#932100
0|
0~
0!"
1:
b100 C
b1111000 ""
1>
#936000
0>
#939900
1|
b0 C
b1111001 ""
1>
#940000
1)
#943800
0>
#947700
0|
1~
b1 C
b1111010 ""
1>
#951600
0>
#955500
13
1|
b11 C
b1111011 ""
1>
#959400
0>
#960000
0)
#963300
03
0|
0~
1!"
b110 C
b1111100 ""
1>
#967200
0>
#971100
1|
b100 C
b1111101 ""
1>
#975000
0>
#978900
0|
1~
b0 C
b1111110 ""
1>
#980000
1)
#982800
0>
#986700
1|
b1 C
b1111111 ""
1>
#990600
0>
#994500
b101111101010110 &"
b1110111101010111 %"
b101111101110111 $"
b1110111101010110 #"
13
0|
0~
0!"
1}
0:
b11 C
b10000000 ""
1>
#998400
0>
#1000000
0)
#1002300
03
1|
b110 C
b10000001 ""
1>
#1006200
0>
#1010100
0|
1~
b100 C
b10000010 ""
1>
#1014000
0>
#1017900
1|
b0 C
b10000011 ""
1>
#1020000
1)
#1021800
0>
#1025700
0|
0~
1!"
b1 C
b10000100 ""
1>
#1029600
0>
#1033500
13
1|
b11 C
b10000101 ""
1>
#1037400
0>
#1040000
0)
#1041300
03
0|
1~
b110 C
b10000110 ""
1>
#1045200
0>
#1049100
1|
b100 C
b10000111 ""
1>
#1053000
0>
#1056900
0|
0~
0!"
1:
b0 C
b10001000 ""
1>
#1060000
1)
#1060800
0>
#1064700
1|
b1 C
b10001001 ""
1>
#1068600
0>
#1072500
13
0|
1~
b11 C
b10001010 ""
1>
#1076400
0>
#1080000
0)
#1080300
03
1|
b110 C
b10001011 ""
1>
#1084200
0>
#1088100
0|
0~
1!"
b100 C
b10001100 ""
1>
#1092000
0>
#1095900
1|
b0 C
b10001101 ""
1>
#1099800
0>
#1100000
1)
#1103700
0|
1~
b1 C
b10001110 ""
1>
#1107600
0>
#1111500
13
1|
b11 C
b10001111 ""
1>
#1115400
0>
#1119300
03
0|
0~
0!"
0:
b111 C
b10010000 ""
1>
#1120000
0)
#1123200
0>
#1127100
1|
b110 C
b10010001 ""
1>
#1131000
0>
#1134900
0|
1~
b100 C
b10010010 ""
1>
#1138800
0>
#1140000
1)
#1142700
1|
b1 C
b10010011 ""
1>
#1146600
0>
#1150500
13
0|
0~
1!"
b11 C
b10010100 ""
1>
#1154400
0>
#1158300
03
1|
b111 C
b10010101 ""
1>
#1160000
0)
#1162200
0>
#1166100
0|
1~
b110 C
b10010110 ""
1>
#1170000
0>
#1173900
1|
b100 C
b10010111 ""
1>
#1177800
0>
#1180000
1)
#1181700
0|
0~
0!"
1:
b1 C
b10011000 ""
1>
#1185600
0>
#1189500
13
1|
b11 C
b10011001 ""
1>
#1193400
0>
#1197300
03
0|
1~
b111 C
b10011010 ""
1>
#1200000
0)
#1201200
0>
#1205100
1|
b110 C
b10011011 ""
1>
#1209000
0>
#1212900
0|
0~
1!"
b100 C
b10011100 ""
1>
#1216800
0>
#1220000
1)
#1220700
1|
b1 C
b10011101 ""
1>
#1224600
0>
#1228500
13
0|
1~
b11 C
b10011110 ""
1>
#1232400
0>
#1236300
03
1|
b111 C
b10011111 ""
1>
#1240000
0)
#1240200
0>
#1244100
0|
0~
0!"
0:
b110 C
b10100000 ""
1>
#1248000
0>
#1251900
1|
b100 C
b10100001 ""
1>
#1255800
0>
#1259700
0|
1~
b0 C
b10100010 ""
1>
#1260000
1)
#1263600
0>
#1267500
1|
b1 C
b10100011 ""
1>
#1271400
0>
#1275300
13
0|
0~
1!"
b11 C
b10100100 ""
1>
#1279200
0>
#1280000
0)
#1283100
03
1|
b110 C
b10100101 ""
1>
#1287000
0>
#1290900
0|
1~
b100 C
b10100110 ""
1>
#1294800
0>
#1298700
1|
b0 C
b10100111 ""
1>
#1300000
1)
#1302600
0>
#1306500
0|
0~
0!"
1:
b1 C
b10101000 ""
1>
#1310400
0>
#1314300
13
1|
b11 C
b10101001 ""
1>
#1318200
0>
#1320000
0)
#1322100
03
0|
1~
b110 C
b10101010 ""
1>
#1326000
0>
#1329900
1|
b100 C
b10101011 ""
1>
#1333800
0>
#1337700
0|
0~
1!"
b0 C
b10101100 ""
1>
#1340000
1)
#1341600
0>
#1345500
1|
b1 C
b10101101 ""
1>
#1349400
0>
#1353300
13
0|
1~
b11 C
b10101110 ""
1>
#1357200
0>
#1360000
0)
#1361100
03
1|
b110 C
b10101111 ""
1>
#1365000
0>
#1368900
0|
0~
0!"
0:
b100 C
b10110000 ""
1>
#1372800
0>
#1376700
1|
b0 C
b10110001 ""
1>
#1380000
1)
#1380600
0>
#1384500
0|
1~
b1 C
b10110010 ""
1>
#1388400
0>
#1392300
13
1|
b11 C
b10110011 ""
1>
#1396200
0>
#1400000
0)
#1400100
03
0|
0~
1!"
b110 C
b10110100 ""
1>
#1404000
0>
#1407900
1|
b100 C
b10110101 ""
1>
#1411800
0>
#1415700
0|
1~
b0 C
b10110110 ""
1>
#1419600
0>
#1420000
1)
#1423500
1|
b1 C
b10110111 ""
1>
#1427400
0>
#1431300
13
0|
0~
0!"
1:
b11 C
b10111000 ""
1>
#1435200
0>
#1439100
03
1|
b111 C
b10111001 ""
1>
#1440000
0)
#1443000
0>
#1446900
0|
1~
b110 C
b10111010 ""
1>
#1450800
0>
#1454700
1|
b100 C
b10111011 ""
1>
#1458600
0>
#1460000
1)
#1462500
0|
0~
1!"
b1 C
b10111100 ""
1>
#1466400
0>
#1470300
13
1|
b11 C
b10111101 ""
1>
#1474200
0>
#1478100
03
0|
1~
b111 C
b10111110 ""
1>
#1480000
0)
#1482000
0>
#1485900
1|
b110 C
b10111111 ""
1>
#1489800
0>
#1493700
0|
0~
0!"
0:
b100 C
b11000000 ""
1>
#1497600
0>
#1500000
1)
#1501500
1|
b1 C
b11000001 ""
1>
#1505400
0>
#1509300
13
0|
1~
b11 C
b11000010 ""
1>
#1513200
0>
#1517100
03
1|
b111 C
b11000011 ""
1>
#1520000
0)
#1521000
0>
#1524900
0|
0~
1!"
b110 C
b11000100 ""
1>
#1528800
0>
#1532700
1|
b100 C
b11000101 ""
1>
#1536600
0>
#1540000
1)
#1540500
0|
1~
b1 C
b11000110 ""
1>
#1544400
0>
#1548300
13
1|
b11 C
b11000111 ""
1>
#1552200
0>
#1556100
03
0|
0~
0!"
1:
b111 C
b11001000 ""
1>
#1560000
0>
0)
#1563900
1|
b110 C
b11001001 ""
1>
#1567800
0>
#1571700
0|
1~
b100 C
b11001010 ""
1>
#1575600
0>
#1579500
1|
b0 C
b11001011 ""
1>
#1580000
1)
#1583400
0>
#1587300
0|
0~
1!"
b1 C
b11001100 ""
1>
#1591200
0>
#1595100
13
1|
b11 C
b11001101 ""
1>
#1599000
0>
#1600000
0)
#1602900
03
0|
1~
b110 C
b11001110 ""
1>
#1606800
0>
#1610700
1|
b100 C
b11001111 ""
1>
#1614600
0>
#1618500
0|
0~
0!"
0:
b0 C
b11010000 ""
1>
#1620000
1)
#1622400
0>
#1626300
1|
b1 C
b11010001 ""
1>
#1630200
0>
#1634100
13
0|
1~
b11 C
b11010010 ""
1>
#1638000
0>
#1640000
0)
#1641900
03
1|
b110 C
b11010011 ""
1>
#1645800
0>
#1649700
0|
0~
1!"
b100 C
b11010100 ""
1>
#1653600
0>
#1657500
1|
b0 C
b11010101 ""
1>
#1660000
1)
#1661400
0>
#1665300
0|
1~
b1 C
b11010110 ""
1>
#1669200
0>
#1673100
13
1|
b11 C
b11010111 ""
1>
#1677000
0>
#1680000
0)
#1680900
03
0|
0~
0!"
1:
b110 C
b11011000 ""
1>
#1684800
0>
#1688700
1|
b100 C
b11011001 ""
1>
#1692600
0>
#1696500
0|
1~
b0 C
b11011010 ""
1>
#1700000
1)
#1700400
0>
#1704300
1|
b1 C
b11011011 ""
1>
#1708200
0>
#1712100
13
0|
0~
1!"
b11 C
b11011100 ""
1>
#1716000
0>
#1719900
03
1|
b111 C
b11011101 ""
1>
#1720000
0)
#1723800
0>
#1727700
0|
1~
b110 C
b11011110 ""
1>
#1731600
0>
#1735500
1|
b100 C
b11011111 ""
1>
#1739400
0>
#1740000
1)
#1743300
0|
0~
0!"
0:
b1 C
b11100000 ""
1>
#1747200
0>
#1751100
13
1|
b11 C
b11100001 ""
1>
#1755000
0>
#1758900
03
0|
1~
b111 C
b11100010 ""
1>
#1760000
0)
#1762800
0>
#1766700
1|
b110 C
b11100011 ""
1>
#1770600
0>
#1774500
0|
0~
1!"
b100 C
b11100100 ""
1>
#1778400
0>
#1780000
1)
#1782300
1|
b1 C
b11100101 ""
1>
#1786200
0>
#1790100
13
0|
1~
b11 C
b11100110 ""
1>
#1794000
0>
#1797900
03
1|
b111 C
b11100111 ""
1>
#1800000
0)
#1801800
0>
#1805700
0|
0~
0!"
1:
b110 C
b11101000 ""
1>
#1809600
0>
#1813500
1|
b100 C
b11101001 ""
1>
#1817400
0>
#1820000
1)
#1821300
0|
1~
b1 C
b11101010 ""
1>
#1825200
0>
#1829100
13
1|
b11 C
b11101011 ""
1>
#1833000
0>
#1836900
03
0|
0~
1!"
b111 C
b11101100 ""
1>
#1840000
0)
#1840800
0>
#1844700
1|
b110 C
b11101101 ""
1>
#1848600
0>
#1852500
0|
1~
b100 C
b11101110 ""
1>
#1856400
0>
#1860000
1)
#1860300
1|
b1 C
b11101111 ""
1>
#1864200
0>
#1868100
13
0|
0~
0!"
0:
b11 C
b11110000 ""
1>
#1872000
0>
#1875900
03
1|
b111 C
b11110001 ""
1>
#1879800
0>
#1880000
0)
#1883700
0|
1~
b110 C
b11110010 ""
1>
#1887600
0>
#1891500
1|
b100 C
b11110011 ""
1>
#1895400
0>
#1899300
0|
0~
1!"
b0 C
b11110100 ""
1>
#1900000
1)
#1903200
0>
#1907100
1|
b1 C
b11110101 ""
1>
#1911000
0>
#1914900
13
0|
1~
b11 C
b11110110 ""
1>
#1918800
0>
#1920000
0)
#1922700
03
1|
b110 C
b11110111 ""
1>
#1926600
0>
#1930500
0|
0~
0!"
1:
b100 C
b11111000 ""
1>
#1934400
0>
#1938300
1|
b0 C
b11111001 ""
1>
#1940000
1)
#1942200
0>
#1946100
0|
1~
b1 C
b11111010 ""
1>
#1950000
0>
#1953900
13
1|
b11 C
b11111011 ""
1>
#1957800
0>
#1960000
0)
#1961700
03
0|
0~
1!"
b110 C
b11111100 ""
1>
#1965600
0>
#1969500
1|
b100 C
b11111101 ""
1>
#1973400
0>
#1977300
0|
1~
b0 C
b11111110 ""
1>
#1980000
1)
#1981200
0>
#1985100
1|
b1 C
b11111111 ""
1>
#1989000
0>
#1992900
13
0|
0~
0!"
0}
0:
b11 C
b0 ""
1>
#1996800
0>
#2000000
0)
#2000700
03
1|
b110 C
b1 ""
1>
#2004600
0>
#2008500
0|
1~
b100 C
b10 ""
1>
#2012400
0>
#2016300
1|
b0 C
b11 ""
1>
#2020000
1)
#2020200
0>
#2024100
0|
0~
1!"
b1 C
b100 ""
1>
#2028000
0>
#2031900
13
1|
b11 C
b101 ""
1>
#2035800
0>
#2039700
03
0|
1~
b111 C
b110 ""
1>
#2040000
0)
#2043600
0>
#2047500
1|
b110 C
b111 ""
1>
#2051400
0>
#2055300
0|
0~
0!"
1:
b100 C
b1000 ""
1>
#2059200
0>
#2060000
1)
#2063100
1|
b1 C
b1001 ""
1>
#2067000
0>
#2070900
13
0|
1~
b11 C
b1010 ""
1>
#2074800
0>
#2078700
03
1|
b111 C
b1011 ""
1>
#2080000
0)
#2082600
0>
#2086500
0|
0~
1!"
b110 C
b1100 ""
1>
#2090400
0>
#2094300
1|
b100 C
b1101 ""
1>
#2098200
0>
#2100000
1)
#2102100
0|
1~
b1 C
b1110 ""
1>
#2106000
0>
#2109900
13
1|
b11 C
b1111 ""
1>
#2113800
0>
#2117700
03
0|
0~
0!"
0:
b111 C
b10000 ""
1>
#2120000
0)
#2121600
0>
#2125500
1|
b110 C
b10001 ""
1>
#2129400
0>
#2133300
0|
1~
b100 C
b10010 ""
1>
#2137200
0>
#2140000
1)
#2141100
1|
b1 C
b10011 ""
1>
#2145000
0>
#2148900
13
0|
0~
1!"
b11 C
b10100 ""
1>
#2152800
0>
#2156700
03
1|
b111 C
b10101 ""
1>
#2160000
0)
#2160600
0>
#2164500
0|
1~
b110 C
b10110 ""
1>
#2168400
0>
#2172300
1|
b100 C
b10111 ""
1>
#2176200
0>
#2180000
1)
#2180100
0|
0~
0!"
1:
b1 C
b11000 ""
1>
#2184000
0>
#2187900
13
1|
b11 C
b11001 ""
1>
#2191800
0>
#2195700
03
0|
1~
b111 C
b11010 ""
1>
#2199600
0>
#2200000
0)
#2203500
1|
b110 C
b11011 ""
1>
#2207400
0>
#2211300
0|
0~
1!"
b100 C
b11100 ""
1>
#2215200
0>
#2219100
1|
b0 C
b11101 ""
1>
#2220000
1)
#2223000
0>
#2226900
0|
1~
b1 C
b11110 ""
1>
#2230800
0>
#2234700
13
1|
b11 C
b11111 ""
1>
#2238600
0>
#2240000
0)
#2242500
03
0|
0~
0!"
0:
b110 C
b100000 ""
1>
#2246400
0>
#2250300
1|
b100 C
b100001 ""
1>
#2254200
0>
